{
    "- {plus": [
        "chillhop",
        "lo-fi beats"
    ],
    "000 maniacs": [
        "dance rock",
        "folk",
        "lilith",
        "mellow gold",
        "new wave pop",
        "pop rock"
    ],
    "10": [
        "escape room",
        "glitchcore"
    ],
    "101 strings": [
        "adult standards",
        "ballroom",
        "easy listening",
        "lounge"
    ],
    "101 strings orchestra": [
        "adult standards",
        "ballroom",
        "easy listening",
        "lounge"
    ],
    "10cc": [
        "album rock",
        "art rock",
        "classic rock",
        "classic uk pop",
        "dance rock",
        "folk rock",
        "glam rock",
        "mellow gold",
        "rock",
        "soft rock",
        "symphonic rock",
        "yacht rock"
    ],
    "112": [
        "atl hip hop",
        "boy band",
        "dance pop",
        "gangster rap",
        "hip pop",
        "new jack swing",
        "pop rap",
        "r&b",
        "rap",
        "southern hip hop",
        "urban contemporary"
    ],
    "1910 fruitgum company": [
        "brill building pop",
        "bubblegum pop",
        "classic garage rock",
        "folk rock",
        "merseybeat"
    ],
    "2 brothers on the 4th floor": [
        "bubblegum dance",
        "eurodance",
        "europop",
        "happy hardcore",
        "hip house"
    ],
    "2 eivissa": [
        "bubblegum dance",
        "eurodance",
        "europop",
        "hip house"
    ],
    "2 vibez": [
        "hands up"
    ],
    "2 wayz": [
        "kizomba",
        "zouk"
    ],
    "2-4 grooves": [
        "hands up",
        "pop house"
    ],
    "2nd ii none": [
        "gangster rap",
        "west coast rap"
    ],
    "2pac": [
        "g funk",
        "gangster rap",
        "hip hop",
        "rap",
        "west coast rap"
    ],
    "2raumwohnung": [
        "german pop"
    ],
    "3 doors down": [
        "alternative metal",
        "nu metal",
        "pop rock",
        "post-grunge"
    ],
    "30 seconds to mars": [
        "modern rock",
        "pop punk",
        "post-grunge",
        "rock"
    ],
    "311": [
        "alternative metal",
        "alternative rock",
        "funk metal",
        "funk rock",
        "nu metal",
        "pop rock",
        "rap rock",
        "reggae fusion",
        "rock"
    ],
    "313 bass mechanics": [
        "ghettotech"
    ],
    "31knots": [
        "math rock"
    ],
    "3lw": [
        "girl group",
        "hip pop",
        "r&b",
        "urban contemporary"
    ],
    "3rd alley": [
        "reggae rock"
    ],
    "3rd bass": [
        "east coast hip hop",
        "electro",
        "gangster rap",
        "hardcore hip hop",
        "hip hop",
        "hip house",
        "rap"
    ],
    "3t": [
        "electro-industrial",
        "industrial",
        "industrial metal",
        "industrial rock"
    ],
    "4 clubbers": [
        "bubble trance",
        "eurodance"
    ],
    "4 non blondes": [
        "new wave pop",
        "pop rock"
    ],
    "45 grave": [
        "deathrock",
        "gothic rock",
        "horror punk"
    ],
    "49ers": [
        "diva house",
        "hip house",
        "italo house"
    ],
    "4hero": [
        "broken beat",
        "drum and bass",
        "jazztronica",
        "jungle",
        "liquid funk",
        "ninja",
        "nu jazz",
        "rave",
        "trip hop"
    ],
    "4him": [
        "christian alternative rock",
        "christian music",
        "worship"
    ],
    "50 cent": [
        "east coast hip hop",
        "gangster rap",
        "hip hop",
        "pop rap",
        "queens hip hop",
        "rap"
    ],
    "808 state": [
        "acid house",
        "big beat",
        "chicago house",
        "electro",
        "hardcore techno",
        "hip house",
        "intelligent dance music",
        "madchester",
        "rave",
        "techno"
    ],
    "883": [
        "classic italian pop",
        "europop",
        "italian arena pop",
        "italian hip hop",
        "italian pop"
    ],
    "9 lazy 9": [
        "big beat",
        "downtempo",
        "ninja",
        "nu jazz",
        "trip hop",
        "turntablism"
    ],
    "91 suite": [
        "melodic hard rock"
    ],
    "98\u00ba": [
        "boy band",
        "dance pop"
    ],
    "? & the mysterians": [
        "bubblegum pop",
        "chicano punk",
        "classic garage rock",
        "freakbeat",
        "protopunk",
        "psychedelic rock"
    ],
    "a balladeer": [
        "dutch indie",
        "dutch rock"
    ],
    "a fine frenzy": [
        "acoustic pop",
        "lilith",
        "neo mellow"
    ],
    "a flock of seagulls": [
        "dance rock",
        "new romantic",
        "new wave",
        "new wave pop",
        "synthpop"
    ],
    "a perfect circle": [
        "alternative metal",
        "alternative rock",
        "modern rock",
        "nu metal",
        "rap rock",
        "rock",
        "supergroup"
    ],
    "a taste of honey": [
        "boogie",
        "disco",
        "funk",
        "post-disco"
    ],
    "a tribe called quest": [
        "alternative hip hop",
        "conscious hip hop",
        "east coast hip hop",
        "gangster rap",
        "hardcore hip hop",
        "hip hop",
        "jazz rap",
        "queens hip hop",
        "rap"
    ],
    "a*teens": [
        "bubblegum dance",
        "dance pop",
        "europop"
    ],
    "a-ha": [
        "dance rock",
        "new romantic",
        "new wave",
        "new wave pop",
        "permanent wave",
        "soft rock",
        "synthpop"
    ],
    "a.m.r.": [
        "arab electronic",
        "progressive trance house"
    ],
    "a.m.r. & matt dyson": [
        "arab electronic",
        "progressive trance house"
    ],
    "a.r.e. weapons": [
        "electroclash"
    ],
    "aaliyah": [
        "dance pop",
        "hip hop",
        "hip pop",
        "neo soul",
        "pop",
        "pop rap",
        "r&b",
        "urban contemporary"
    ],
    "aaron hall": [
        "neo soul",
        "new jack swing",
        "quiet storm",
        "r&b",
        "urban contemporary"
    ],
    "aaron neville": [
        "motown",
        "soul"
    ],
    "aaron shust": [
        "anthem worship",
        "ccm",
        "christian alternative rock",
        "christian music",
        "rock cristiano",
        "world worship",
        "worship"
    ],
    "aaron tippin": [
        "country",
        "country road",
        "country rock",
        "redneck"
    ],
    "aaron watson": [
        "contemporary country",
        "country",
        "country road",
        "modern country rock",
        "texas country"
    ],
    "abba": [
        "europop",
        "swedish pop"
    ],
    "abbacadabra": [
        "euro hi-nrg"
    ],
    "abc": [
        "art rock",
        "dance rock",
        "new romantic",
        "new wave",
        "new wave pop",
        "soft rock",
        "synthpop"
    ],
    "abdelaziz stati": [
        "chaabi marocain",
        "rai"
    ],
    "abigail washburn": [
        "banjo",
        "clawhammer banjo",
        "progressive bluegrass"
    ],
    "above & beyond feat. zoe johnston": [
        "edm",
        "progressive house",
        "progressive trance",
        "trance",
        "uplifting trance"
    ],
    "abra moore": [
        "ectofolk",
        "lilith",
        "new wave pop"
    ],
    "absent kid": [
        "deep indie rock"
    ],
    "abstract vision": [
        "deep uplifting trance",
        "progressive house",
        "progressive trance",
        "progressive uplifting trance",
        "russian trance",
        "trance",
        "uplifting trance"
    ],
    "abst\u00fcrzende brieftauben": [
        "antideutsche",
        "german punk",
        "german rock"
    ],
    "aca lukas": [
        "narodna muzika",
        "turbo folk",
        "yugoslav rock"
    ],
    "academy": [
        "british orchestra",
        "chamber orchestra",
        "classical",
        "classical performance"
    ],
    "academy of st martin-in-the-fields": [
        "british orchestra",
        "chamber orchestra",
        "classical",
        "classical performance"
    ],
    "acda & de munnik": [
        "metalcore",
        "pop punk",
        "screamo"
    ],
    "ace frehley": [
        "album rock",
        "glam metal",
        "hard rock",
        "metal",
        "rock"
    ],
    "ace of base": [
        "bubblegum dance",
        "dance pop",
        "eurodance",
        "europop",
        "hip house",
        "pop rock"
    ],
    "acker bilk": [
        "adult standards",
        "ballroom",
        "brill building pop",
        "easy listening",
        "jazz clarinet",
        "lounge"
    ],
    "across the border": [
        "celtic punk"
    ],
    "adam barta": [
        "deep vocal house"
    ],
    "adam faith": [
        "brill building pop",
        "british invasion",
        "classic uk pop",
        "merseybeat",
        "rock-and-roll"
    ],
    "adam fischer": [
        "orchestral performance"
    ],
    "adam hood": [
        "roots americana",
        "texas country"
    ],
    "adam lambert": [
        "dance pop",
        "idol",
        "pop",
        "post-teen pop"
    ],
    "adam schmitt": [
        "modern power pop",
        "power pop",
        "underground power pop"
    ],
    "adele": [
        "british soul",
        "pop",
        "uk pop"
    ],
    "adina howard": [
        "hip pop",
        "new jack swing",
        "r&b",
        "urban contemporary"
    ],
    "admiral freebee": [
        "belgian indie",
        "belgian rock"
    ],
    "aerosmith": [
        "album rock",
        "classic rock",
        "hard rock",
        "rock"
    ],
    "aerospace": [
        "progressive psytrance"
    ],
    "afi": [
        "alternative metal",
        "emo",
        "modern rock",
        "pop punk",
        "punk",
        "screamo",
        "skate punk"
    ],
    "afrika bambaataa": [
        "bronx hip hop",
        "east coast hip hop",
        "electro",
        "hip hop",
        "hip house",
        "old school hip hop"
    ],
    "afrika bambaataa & the soul sonic force": [
        "bronx hip hop",
        "east coast hip hop",
        "electro",
        "hip hop",
        "hip house",
        "old school hip hop"
    ],
    "after the fire": [
        "new wave"
    ],
    "afx": [
        "braindance",
        "deep idm",
        "drill and bass",
        "electro",
        "intelligent dance music"
    ],
    "against me!": [
        "folk punk",
        "gainesville indie",
        "orgcore",
        "punk",
        "skate punk"
    ],
    "agathodaimon": [
        "black metal",
        "german black metal",
        "melodic death metal",
        "symphonic black metal"
    ],
    "age of chance": [
        "c86"
    ],
    "agnes": [
        "chamber pop",
        "focus"
    ],
    "agnes baltsa": [
        "classical mezzo-soprano",
        "classical performance",
        "opera"
    ],
    "agnetha f\u00e4ltskog": [
        "classic swedish pop",
        "europop",
        "new wave pop"
    ],
    "agnieszka chylinska": [
        "polish pop"
    ],
    "agoria": [
        "electronica",
        "microhouse",
        "minimal techno",
        "new french touch",
        "organic house",
        "tech house"
    ],
    "aimable": [
        "accordeon",
        "accordion",
        "bal-musette"
    ],
    "air miami": [
        "alternative pop"
    ],
    "air supply": [
        "adult standards",
        "mellow gold",
        "soft rock"
    ],
    "airbase": [
        "deep progressive trance",
        "progressive house",
        "trance",
        "uplifting trance"
    ],
    "airwave": [
        "background music"
    ],
    "akcent": [
        "disco polo",
        "europop",
        "romanian pop"
    ],
    "akon": [
        "dance pop"
    ],
    "al b. sure!": [
        "funk",
        "new jack swing",
        "quiet storm",
        "r&b",
        "urban contemporary"
    ],
    "al bano & romina power": [
        "classic italian pop",
        "italian pop"
    ],
    "al di meola": [
        "flamenco guitar",
        "jazz fusion",
        "jazz guitar"
    ],
    "al green": [
        "classic soul",
        "funk",
        "memphis soul",
        "quiet storm",
        "soul",
        "soul blues",
        "southern soul"
    ],
    "al hirt": [
        "adult standards",
        "dixieland",
        "easy listening",
        "jazz trumpet",
        "lounge",
        "new orleans jazz",
        "space age pop"
    ],
    "al jarreau": [
        "adult standards",
        "jazz funk",
        "quiet storm",
        "smooth jazz",
        "soft rock",
        "yacht rock"
    ],
    "al martino": [
        "adult standards",
        "brill building pop",
        "easy listening",
        "lounge"
    ],
    "al meola": [
        "flamenco guitar",
        "jazz fusion",
        "jazz guitar"
    ],
    "alabama": [
        "country",
        "country road",
        "country rock"
    ],
    "alain bashung": [
        "chanson",
        "french indie pop",
        "french rock",
        "nouvelle chanson francaise"
    ],
    "alain morisod": [
        "accordeon",
        "easy listening"
    ],
    "alain souchon": [
        "chanson",
        "french pop",
        "french rock",
        "nouvelle chanson francaise"
    ],
    "alain turban": [
        "classic french pop"
    ],
    "alan jackson": [
        "contemporary country",
        "country",
        "country road"
    ],
    "alan master t": [
        "nordic house"
    ],
    "alan parsons": [
        "album rock",
        "art rock",
        "classic rock",
        "mellow gold",
        "progressive rock",
        "soft rock",
        "symphonic rock"
    ],
    "alan pride": [
        "british blues"
    ],
    "alan silvestri": [
        "scorecore",
        "soundtrack"
    ],
    "alan sorrenti": [
        "classic italian pop",
        "italian pop"
    ],
    "alanis morissette": [
        "alternative rock",
        "canadian pop",
        "canadian singer-songwriter",
        "pop rock",
        "singer-songwriter"
    ],
    "alannah myles": [
        "classic canadian rock",
        "new wave pop"
    ],
    "alaska in winter": [
        "santa fe indie"
    ],
    "alaska y dinarama": [
        "spanish new wave",
        "spanish pop",
        "spanish synthpop"
    ],
    "alban berg quartett": [
        "classical",
        "classical performance",
        "string quartet"
    ],
    "albert hammond": [
        "bubblegum pop",
        "classic uk pop",
        "folk rock",
        "nederpop",
        "rock of gibraltar",
        "soft rock"
    ],
    "alberto plaza": [
        "cantautor",
        "ecuadorian pop",
        "latin",
        "latin pop",
        "nueva cancion"
    ],
    "alcazar": [
        "eurodance",
        "europop",
        "swedish electropop",
        "swedish pop"
    ],
    "alceu valen\u00e7a": [
        "manguebeat",
        "mpb",
        "nova musica pernambucana"
    ],
    "aldo": [
        "corridos tumbados",
        "regional mexican pop"
    ],
    "aldo nova": [
        "album rock",
        "canadian metal",
        "classic canadian rock",
        "glam metal",
        "hard rock"
    ],
    "aled jones": [
        "operatic pop"
    ],
    "aleete": [
        "guaracha"
    ],
    "alejandro escovedo": [
        "alternative country",
        "country rock",
        "folk",
        "heartland rock",
        "new americana",
        "pub rock",
        "roots rock"
    ],
    "alejandro fernandez": [
        "grupera",
        "latin",
        "latin arena pop",
        "latin pop",
        "mexican pop",
        "ranchera"
    ],
    "alejandro santiago": [
        "cantautor",
        "nueva cancion",
        "trova"
    ],
    "alejandro sanz": [
        "cantautor",
        "latin",
        "latin arena pop",
        "latin pop",
        "mexican pop",
        "rock en espanol",
        "spanish pop"
    ],
    "aleks syntek": [
        "grupera",
        "latin",
        "latin alternative",
        "latin arena pop",
        "latin pop",
        "latin rock",
        "mexican pop",
        "rock en espanol"
    ],
    "alela diane": [
        "chamber pop",
        "freak folk",
        "indie folk",
        "new weird america",
        "stomp and holler"
    ],
    "alesha dixon": [
        "bubblegum dance",
        "europop"
    ],
    "alessandra amoroso": [
        "italian arena pop",
        "italian pop"
    ],
    "alessandro safina": [
        "italian tenor",
        "operatic pop"
    ],
    "alex": [
        "indie pop",
        "pop"
    ],
    "alex baroni": [
        "classic italian pop",
        "italian pop"
    ],
    "alex bleeker": [
        "new jersey indie",
        "popgaze"
    ],
    "alex britti": [
        "classic italian pop",
        "europop",
        "italian arena pop",
        "italian pop"
    ],
    "alex bugnon": [
        "smooth jazz"
    ],
    "alex fong": [
        "c-pop",
        "cantopop"
    ],
    "alex gaudino": [
        "disco house",
        "edm",
        "electro house",
        "vocal house"
    ],
    "alex kenji": [
        "funky tech house",
        "tech house"
    ],
    "alex kenji & manuel de la mare": [
        "funky tech house",
        "tech house"
    ],
    "alex lloyd": [
        "australian alternative rock",
        "australian rock"
    ],
    "alex m.o.r.p.h": [
        "german techno",
        "german trance",
        "progressive house",
        "progressive trance",
        "progressive uplifting trance",
        "trance",
        "uplifting trance"
    ],
    "alex markachev": [
        "re:techno"
    ],
    "alex megane": [
        "hands up"
    ],
    "alexander hacke": [
        "industrial"
    ],
    "alexander o'neal": [
        "disco",
        "funk",
        "minneapolis sound",
        "new jack swing",
        "post-disco",
        "quiet storm",
        "soul",
        "urban contemporary"
    ],
    "alexandra burke": [
        "dance pop",
        "europop",
        "post-teen pop",
        "talent show"
    ],
    "alexandra prince": [
        "vocal trance"
    ],
    "alexandre desplat": [
        "french soundtrack",
        "hollywood",
        "soundtrack"
    ],
    "alexandre pires": [
        "axe",
        "pagode"
    ],
    "alexis hk": [
        "chanson",
        "french folk pop",
        "french rock",
        "nouvelle chanson francaise"
    ],
    "alf robertson": [
        "classic swedish pop",
        "dansband",
        "danspunk",
        "swedish country",
        "vintage swedish pop"
    ],
    "alfie boe": [
        "operatic pop"
    ],
    "alfred brendel": [
        "classical",
        "classical performance",
        "classical piano"
    ],
    "alfred newman": [
        "classic soundtrack"
    ],
    "alfredo giacomotti": [
        "italian bass"
    ],
    "alfredo gutierrez": [
        "classic colombian pop",
        "cumbia",
        "vallenato"
    ],
    "alfredo kraus": [
        "classical tenor",
        "opera",
        "spanish classical"
    ],
    "ali campbell": [
        "uk reggae"
    ],
    "alice": [
        "alternative metal",
        "alternative rock",
        "grunge",
        "hard rock",
        "nu metal",
        "rock"
    ],
    "alice cooper": [
        "album rock",
        "blues rock",
        "classic rock",
        "glam metal",
        "glam rock",
        "hard rock",
        "metal",
        "protopunk",
        "rock"
    ],
    "alice in chains": [
        "alternative metal",
        "alternative rock",
        "grunge",
        "hard rock",
        "nu metal",
        "rock"
    ],
    "alice peacock": [
        "lilith"
    ],
    "alice russell": [
        "british soul",
        "funk",
        "nu jazz"
    ],
    "alice smith": [
        "neo soul"
    ],
    "alicia bridges": [
        "disco"
    ],
    "alicia keys": [
        "hip pop",
        "neo soul",
        "pop",
        "r&b",
        "urban contemporary"
    ],
    "alien ant farm": [
        "alternative metal",
        "funk metal",
        "nu metal",
        "pop punk",
        "post-grunge",
        "rap rock"
    ],
    "aline barros": [
        "adoracao",
        "brazilian gospel"
    ],
    "alison krauss": [
        "bluegrass",
        "country",
        "folk",
        "lilith",
        "progressive bluegrass"
    ],
    "alison krauss and union station": [
        "bluegrass",
        "folk",
        "progressive bluegrass"
    ],
    "alison limerick": [
        "disco house",
        "diva house",
        "hip house",
        "vocal house"
    ],
    "alison moyet": [
        "dance rock",
        "europop",
        "new romantic",
        "new wave",
        "new wave pop",
        "soft rock",
        "synthpop"
    ],
    "aliz\u00e9e": [
        "french pop"
    ],
    "all india radio": [
        "downtempo",
        "psychill",
        "tassie indie"
    ],
    "all natural lemon & lime flavors": [
        "nu gaze",
        "shoegaze"
    ],
    "all saints": [
        "bubblegum dance",
        "dance pop",
        "electropop",
        "europop",
        "girl group",
        "new wave pop",
        "pop rock"
    ],
    "all-4-one": [
        "boy band",
        "dance pop",
        "new jack swing",
        "r&b",
        "urban contemporary"
    ],
    "all-star united": [
        "christian punk"
    ],
    "alley cats": [
        "early us punk"
    ],
    "allison moorer": [
        "alternative country",
        "country dawn",
        "folk",
        "lilith"
    ],
    "alma cogan": [
        "classic uk pop",
        "deep adult standards",
        "rock-and-roll"
    ],
    "alphabeat": [
        "dance pop",
        "danish pop",
        "electropop",
        "europop",
        "metropopolis"
    ],
    "alphaville": [
        "dance rock",
        "europop",
        "new romantic",
        "new wave",
        "new wave pop",
        "synthpop"
    ],
    "alunni del sole": [
        "classic italian pop"
    ],
    "alvin and the chipmunks": [
        "children's music"
    ],
    "alvin lee": [
        "blues rock",
        "british blues",
        "country rock",
        "electric blues",
        "modern blues"
    ],
    "alvin stardust": [
        "classic uk pop",
        "glam rock",
        "pub rock"
    ],
    "amal hijazi": [
        "arab pop",
        "lebanese pop"
    ],
    "amanda jenssen": [
        "classic swedish pop",
        "europop",
        "lund indie",
        "swedish pop"
    ],
    "amanda lear": [
        "disco",
        "hi-nrg"
    ],
    "amanda marshall": [
        "canadian pop",
        "lilith",
        "pop rock"
    ],
    "amanda seyfried": [
        "hollywood",
        "pop"
    ],
    "amaral": [
        "cantautor",
        "latin arena pop",
        "latin pop",
        "musica aragonesa",
        "spanish pop",
        "spanish pop rock",
        "spanish rock"
    ],
    "amber": [
        "indie anthem-folk",
        "indie cafe pop",
        "indie folk",
        "modern alternative rock",
        "modern rock"
    ],
    "ambrosia": [
        "album rock",
        "art rock",
        "bubblegum pop",
        "classic rock",
        "country rock",
        "folk rock",
        "mellow gold",
        "soft rock",
        "symphonic rock",
        "yacht rock"
    ],
    "amel bent": [
        "francoton",
        "french pop"
    ],
    "amen corner": [
        "bubblegum pop",
        "classic uk pop",
        "freakbeat",
        "merseybeat"
    ],
    "america": [
        "album rock",
        "art rock",
        "classic rock",
        "country rock",
        "folk",
        "folk rock",
        "mellow gold",
        "rock",
        "soft rock"
    ],
    "american hi-fi": [
        "pop punk"
    ],
    "american music club": [
        "chamber pop",
        "melancholia",
        "slowcore"
    ],
    "amici forever": [
        "operatic pop"
    ],
    "amii stewart": [
        "disco",
        "hi-nrg"
    ],
    "amil": [
        "hip pop"
    ],
    "amilcar": [
        "classical",
        "italian opera",
        "late romantic era"
    ],
    "amistades peligrosas": [
        "latin pop",
        "spanish pop"
    ],
    "amon amarth": [
        "alternative metal",
        "death metal",
        "melodic death metal",
        "metal",
        "power metal",
        "swedish death metal",
        "swedish metal",
        "tolkien metal",
        "viking metal"
    ],
    "amon tobin": [
        "big beat",
        "drill and bass",
        "electronica",
        "intelligent dance music",
        "jazztronica",
        "ninja",
        "nu jazz",
        "trip hop"
    ],
    "amorphis": [
        "finnish death metal",
        "finnish metal",
        "folk metal",
        "gothic metal",
        "melodic death metal",
        "metal",
        "power metal",
        "progressive doom",
        "progressive metal"
    ],
    "amos lee": [
        "acoustic pop",
        "indie folk",
        "lilith",
        "neo mellow",
        "new americana",
        "pop rock",
        "stomp and holler"
    ],
    "amuka": [
        "tribal house",
        "vocal house"
    ],
    "amy diamond": [
        "europop",
        "swedish electropop",
        "swedish pop"
    ],
    "amy grant": [
        "christian alternative rock",
        "christian music"
    ],
    "amy macdonald": [
        "pop rock",
        "scottish singer-songwriter"
    ],
    "amy winehouse": [
        "british soul",
        "neo soul"
    ],
    "ana": [
        "chamber pop",
        "indie folk"
    ],
    "ana bel\u00e9n": [
        "cancion melodica",
        "cantautor",
        "flamenco",
        "latin pop",
        "nueva cancion",
        "spanish pop",
        "trova"
    ],
    "ana bel\u00e9n & victor manuel": [
        "cancion melodica",
        "cantautor",
        "flamenco",
        "latin pop",
        "nueva cancion",
        "spanish pop",
        "trova"
    ],
    "ana carolina": [
        "mpb",
        "musica juiz-forana"
    ],
    "ana gabriel": [
        "grupera",
        "latin",
        "latin pop",
        "ranchera"
    ],
    "ana torroja": [
        "latin",
        "latin arena pop",
        "latin pop",
        "mexican pop",
        "spanish pop"
    ],
    "anaconda": [
        "russian hip hop",
        "russian rock"
    ],
    "anastacia": [
        "dance pop",
        "europop"
    ],
    "anathema": [
        "gothic metal",
        "progressive doom",
        "progressive metal"
    ],
    "andre hazes": [
        "dutch pop",
        "dutch rock",
        "levenslied"
    ],
    "andre popp": [
        "exotica",
        "lounge",
        "space age pop"
    ],
    "andre verchuren": [
        "accordeon",
        "accordion",
        "bal-musette"
    ],
    "andre watts": [
        "classical piano"
    ],
    "andrea": [
        "classical tenor",
        "italian tenor",
        "operatic pop"
    ],
    "andrea bocelli": [
        "classical tenor",
        "italian tenor",
        "operatic pop"
    ],
    "andrea true connection": [
        "disco"
    ],
    "andreas dorau": [
        "neue deutsche welle"
    ],
    "andreas johnson": [
        "europop",
        "swedish pop"
    ],
    "andrei gavrilov": [
        "classical performance",
        "classical piano"
    ],
    "andrelli & blue": [
        "swedish pop"
    ],
    "andrelli & blue feat. hila": [
        "swedish pop"
    ],
    "andres calamaro": [
        "argentine rock",
        "cantautor",
        "latin alternative",
        "latin rock",
        "pop argentino",
        "rock en espanol"
    ],
    "andrew bird": [
        "baroque pop",
        "chamber pop",
        "chicago indie",
        "freak folk",
        "indie folk",
        "indie pop",
        "indie rock",
        "melancholia",
        "stomp and holler"
    ],
    "andrew gold": [
        "bubblegum pop",
        "soft rock",
        "underground power pop"
    ],
    "andrew lloyd webber": [
        "broadway",
        "show tunes",
        "west end"
    ],
    "androcell": [
        "ambient psychill",
        "psychill"
    ],
    "andru donalds": [
        "reggae fusion"
    ],
    "andrzej piaseczny": [
        "polish pop"
    ],
    "andr\u00e1s schiff": [
        "classical",
        "classical performance",
        "classical piano"
    ],
    "andr\u00e9 hazes": [
        "dutch pop",
        "dutch rock",
        "levenslied"
    ],
    "andr\u00e9 previn": [
        "orchestral performance"
    ],
    "andr\u00e9 rieu": [
        "easy listening",
        "operatic pop",
        "pop violin"
    ],
    "andr\u00e9 verchuren": [
        "accordeon",
        "accordion",
        "bal-musette"
    ],
    "andy & lucas": [
        "dance pop",
        "neo mellow",
        "pop",
        "pop rock",
        "post-teen pop"
    ],
    "andy abraham": [
        "talent show"
    ],
    "andy andy": [
        "bachata",
        "latin",
        "tropical"
    ],
    "andy caldwell": [
        "deep house"
    ],
    "andy gibb": [
        "adult standards",
        "bubblegum pop",
        "disco",
        "mellow gold",
        "soft rock"
    ],
    "andy griffith": [
        "clean comedy",
        "country gospel"
    ],
    "andy hui": [
        "c-pop",
        "cantopop",
        "classic cantopop"
    ],
    "andy lau": [
        "c-pop",
        "cantopop",
        "classic cantopop",
        "classic mandopop",
        "mandopop"
    ],
    "andy summers": [
        "jazz fusion"
    ],
    "andy williams": [
        "adult standards",
        "brill building pop",
        "easy listening",
        "lounge",
        "mellow gold",
        "vocal jazz"
    ],
    "aneta langerova": [
        "czech folk",
        "czech pop",
        "czech rock"
    ],
    "angel city": [
        "eurodance"
    ],
    "angel romero": [
        "classical guitar",
        "guitarra clasica"
    ],
    "angel stoxx": [
        "greek house"
    ],
    "angela bofill": [
        "adult standards",
        "quiet storm",
        "soft rock",
        "urban contemporary"
    ],
    "angela dimitriou": [
        "greek pop",
        "laiko"
    ],
    "angela strehli": [
        "texas blues"
    ],
    "angeles del infierno": [
        "latin metal",
        "rock en espanol",
        "rock urbano mexicano",
        "spanish metal"
    ],
    "angelina": [
        "freestyle",
        "rosary"
    ],
    "angello": [
        "big room",
        "disco house",
        "edm",
        "electro house",
        "house",
        "progressive electro house",
        "progressive house",
        "tech house"
    ],
    "angelo badalamenti": [
        "dark jazz",
        "soundtrack"
    ],
    "anggun": [
        "indonesian pop",
        "indonesian rock"
    ],
    "angie stone": [
        "neo soul",
        "r&b",
        "soul",
        "urban contemporary"
    ],
    "ang\u00e8le dubeau & la piet\u00e0": [
        "compositional ambient",
        "violin"
    ],
    "ani lorak": [
        "russian dance pop",
        "russian pop",
        "ukrainian pop"
    ],
    "anika moa": [
        "nz singer-songwriter"
    ],
    "animotion": [
        "dance rock",
        "new romantic",
        "new wave",
        "new wave pop",
        "synthpop"
    ],
    "anita baker": [
        "funk",
        "motown",
        "neo soul",
        "new jack swing",
        "quiet storm",
        "r&b",
        "smooth jazz",
        "soul",
        "urban contemporary"
    ],
    "anita skorgan": [
        "classic norwegian pop",
        "norwegian pop"
    ],
    "anita ward": [
        "disco"
    ],
    "anjulie": [
        "canadian pop"
    ],
    "ann hampton callaway": [
        "contemporary vocal jazz",
        "vocal jazz"
    ],
    "ann lee": [
        "eurodance",
        "hip house"
    ],
    "ann peebles": [
        "classic soul",
        "funk",
        "memphis soul",
        "soul",
        "soul blues",
        "southern soul"
    ],
    "anna book": [
        "europop",
        "swedish pop"
    ],
    "anna nalick": [
        "acoustic pop",
        "lilith",
        "neo mellow",
        "pop rock"
    ],
    "anna oxa": [
        "classic italian pop",
        "italian pop"
    ],
    "anna ternheim": [
        "classic swedish pop",
        "swedish alternative rock",
        "swedish pop",
        "swedish singer-songwriter"
    ],
    "anne murray": [
        "adult standards",
        "bubblegum pop",
        "canadian country",
        "canadian pop",
        "folk",
        "folk rock",
        "mellow gold",
        "soft rock"
    ],
    "annet artani": [
        "eurovision"
    ],
    "annette": [
        "latin christian",
        "mariachi cristiano"
    ],
    "annie": [
        "europop",
        "folk",
        "mellow gold",
        "new wave pop",
        "pop rock",
        "soft rock"
    ],
    "annie lennox": [
        "europop",
        "folk",
        "mellow gold",
        "new wave pop",
        "pop rock",
        "soft rock"
    ],
    "anointed": [
        "gospel",
        "gospel r&b"
    ],
    "anouk": [
        "dutch indie",
        "dutch pop",
        "dutch rock"
    ],
    "anthony hamilton": [
        "neo soul",
        "new jack swing",
        "quiet storm",
        "r&b",
        "soul",
        "urban contemporary"
    ],
    "anthony newman": [
        "classical organ",
        "harpsichord"
    ],
    "anthony shakir": [
        "detroit techno",
        "techno"
    ],
    "antiloop": [
        "bubble trance",
        "eurodance"
    ],
    "antimatter": [
        "gothic metal",
        "modern progressive rock"
    ],
    "antoine clamaran": [
        "circuit",
        "disco house",
        "funky tech house",
        "tech house",
        "tribal house",
        "vocal house"
    ],
    "anton dvor\u00e1k": [
        "classical",
        "late romantic era"
    ],
    "antonella ruggiero": [
        "musica etnica"
    ],
    "antonello venditti": [
        "canzone d'autore",
        "classic italian pop",
        "italian pop"
    ],
    "antonin dvorak": [
        "classical",
        "late romantic era"
    ],
    "antonio carlos jobim": [
        "bossa nova",
        "brazilian classical",
        "brazilian jazz",
        "latin classical",
        "mpb",
        "violao"
    ],
    "antonio machin": [
        "bolero",
        "bolero cubano",
        "cancion melodica"
    ],
    "antonio mach\u00edn": [
        "bolero",
        "bolero cubano",
        "cancion melodica"
    ],
    "antonio orozco": [
        "latin pop",
        "spanish pop"
    ],
    "antonio vivaldi": [
        "baroque",
        "classical",
        "early music",
        "italian baroque"
    ],
    "antonis remos": [
        "greek pop",
        "laiko"
    ],
    "any trouble": [
        "power pop",
        "pub rock"
    ],
    "aphrodite's child": [
        "art rock",
        "canterbury scene",
        "greek psychedelic rock",
        "progressive rock",
        "psychedelic rock",
        "symphonic rock"
    ],
    "apocalyptica": [
        "alternative metal",
        "bow pop",
        "cello",
        "symphonic metal"
    ],
    "apurimac": [
        "greek swing",
        "musica andina"
    ],
    "aqua": [
        "bubblegum dance",
        "dance pop",
        "eurodance",
        "europop"
    ],
    "aquagen": [
        "bubble trance",
        "hands up"
    ],
    "ara ketu": [
        "axe",
        "pagode",
        "samba reggae",
        "sertanejo"
    ],
    "arcadi volodos": [
        "classical performance",
        "classical piano"
    ],
    "arcadia": [
        "indiecoustica",
        "stomp and holler"
    ],
    "arch enemy": [
        "alternative metal",
        "death metal",
        "melodic death metal",
        "metal",
        "nu metal",
        "power metal",
        "slayer",
        "swedish death metal",
        "swedish metal"
    ],
    "archie roach": [
        "australian alternative rock",
        "australian indigenous",
        "australian rock"
    ],
    "archive": [
        "electronica",
        "trip hop"
    ],
    "arctic monkeys": [
        "garage rock",
        "modern rock",
        "permanent wave",
        "rock",
        "sheffield indie"
    ],
    "arctic moon": [
        "deep uplifting trance",
        "progressive house",
        "progressive trance",
        "progressive uplifting trance",
        "trance",
        "uplifting trance"
    ],
    "arctic plateau": [
        "italogaze",
        "one-person band"
    ],
    "arctic quest": [
        "dutch trance"
    ],
    "arcturus": [
        "avant-garde black metal",
        "avant-garde metal",
        "black metal",
        "metal",
        "norwegian black metal",
        "norwegian metal",
        "sci-fi metal",
        "symphonic black metal"
    ],
    "aretha franklin": [
        "classic soul",
        "jazz blues",
        "memphis soul",
        "soul",
        "southern soul"
    ],
    "argent": [
        "art rock",
        "blues rock",
        "progressive rock",
        "psychedelic rock",
        "symphonic rock"
    ],
    "arilyn": [
        "dance pop",
        "pop",
        "post-teen pop"
    ],
    "arja saijonmaa": [
        "classic finnish pop",
        "classic swedish pop"
    ],
    "arlo guthrie": [
        "country rock",
        "folk",
        "folk rock",
        "mellow gold",
        "roots rock",
        "singer-songwriter",
        "traditional folk"
    ],
    "armando manzanero": [
        "bolero",
        "cancion melodica",
        "cantautor",
        "latin",
        "latin pop",
        "nueva cancion",
        "ranchera",
        "velha guarda"
    ],
    "armin": [
        "dutch trance",
        "edm",
        "progressive house",
        "trance"
    ],
    "armin van buuren": [
        "dutch trance",
        "edm",
        "progressive house",
        "trance"
    ],
    "arms and sleepers": [
        "chillwave",
        "compositional ambient",
        "post-rock"
    ],
    "army of lovers": [
        "europop"
    ],
    "arne zank": [
        "hamburger schule"
    ],
    "arnej": [
        "progressive house",
        "trance",
        "uplifting trance"
    ],
    "arque": [
        "rap uruguayo",
        "uruguayan indie"
    ],
    "arrested development": [
        "atl hip hop",
        "conscious hip hop",
        "hip hop",
        "rap"
    ],
    "art blakey's jazz messengers": [
        "bebop",
        "contemporary post-bop",
        "cool jazz",
        "hard bop",
        "jazz",
        "jazz drums",
        "jazz funk",
        "jazz fusion",
        "soul jazz"
    ],
    "art garfunkel": [
        "adult standards",
        "folk",
        "folk rock",
        "mellow gold",
        "soft rock",
        "traditional folk"
    ],
    "art of noise": [
        "dance rock",
        "new romantic",
        "new wave",
        "new wave pop",
        "synthpop"
    ],
    "art pepper": [
        "bebop",
        "contemporary post-bop",
        "cool jazz",
        "hard bop",
        "jazz",
        "jazz saxophone",
        "soul jazz"
    ],
    "art tatum": [
        "bebop",
        "big band",
        "contemporary post-bop",
        "cool jazz",
        "hard bop",
        "jazz",
        "jazz piano",
        "stride",
        "swing",
        "vintage jazz"
    ],
    "artesia": [
        "ethereal wave",
        "medieval folk",
        "neoclassical darkwave",
        "rune folk"
    ],
    "arthur brown": [
        "canterbury scene",
        "psychedelic rock"
    ],
    "arthur fiedler": [
        "easy listening"
    ],
    "articolo 31": [
        "italian hip hop",
        "italian pop"
    ],
    "artimus pyle": [
        "southern rock"
    ],
    "arturo benedetti michelangeli": [
        "classical performance",
        "classical piano"
    ],
    "arturo beneditti michelangeli": [
        "classical performance",
        "classical piano"
    ],
    "arturo sandoval": [
        "jazz cubano",
        "jazz trumpet",
        "latin jazz"
    ],
    "arve henriksen": [
        "compositional ambient",
        "contemporary jazz",
        "ecm-style jazz",
        "fourth world",
        "jazz trumpet",
        "norwegian contemporary jazz",
        "norwegian jazz"
    ],
    "asaf avidan & the mojos": [
        "israeli pop",
        "israeli rock"
    ],
    "asche": [
        "pop"
    ],
    "ash": [
        "dance pop",
        "hip hop",
        "hip pop",
        "pop",
        "r&b",
        "southern hip hop",
        "urban contemporary"
    ],
    "ashanti": [
        "dance pop",
        "hip hop",
        "hip pop",
        "pop",
        "r&b",
        "southern hip hop",
        "urban contemporary"
    ],
    "ashford & simpson": [
        "classic soul",
        "disco",
        "funk",
        "motown",
        "post-disco",
        "quiet storm",
        "soul",
        "urban contemporary"
    ],
    "ashlee simpson": [
        "dance pop",
        "post-teen pop"
    ],
    "ashley lilley": [
        "movie tunes"
    ],
    "ashley macisaac": [
        "cape breton folk",
        "celtic rock"
    ],
    "ashley tisdale": [
        "dance pop",
        "pop",
        "post-teen pop",
        "viral pop"
    ],
    "asia": [
        "album rock",
        "art rock",
        "classic rock",
        "hard rock",
        "mellow gold",
        "progressive rock",
        "rock",
        "soft rock",
        "symphonic rock"
    ],
    "asia 2001": [
        "goa trance",
        "nitzhonot"
    ],
    "asleep at the wheel": [
        "country rock",
        "texas country"
    ],
    "assemblage 23": [
        "aggrotech",
        "dark electro",
        "dark wave",
        "ebm",
        "electro-industrial",
        "futurepop",
        "industrial metal",
        "neo-synthpop"
    ],
    "astarte": [
        "black metal",
        "greek metal",
        "melodic black metal",
        "slayer",
        "symphonic black metal"
    ],
    "astrud gilberto": [
        "adult standards",
        "bossa nova",
        "brazilian jazz",
        "lounge",
        "samba-jazz",
        "vocal jazz"
    ],
    "aswad": [
        "dub",
        "lovers rock",
        "reggae",
        "roots reggae",
        "uk reggae"
    ],
    "at vance": [
        "german metal",
        "melodic metal",
        "neo classical metal",
        "power metal",
        "symphonic power metal"
    ],
    "atakama": [
        "russian alternative"
    ],
    "atb": [
        "german dance",
        "german techno",
        "german trance",
        "trance"
    ],
    "aterciopelados": [
        "colombian rock",
        "latin",
        "latin alternative",
        "latin pop",
        "latin rock",
        "rock en espanol"
    ],
    "atfc": [
        "chicago house",
        "deep groove house",
        "deep house",
        "disco house",
        "funky tech house",
        "house",
        "tech house",
        "tribal house",
        "vocal house"
    ],
    "athlete": [
        "britpop"
    ],
    "atlanta rhythm section": [
        "album rock",
        "art rock",
        "blues rock",
        "classic rock",
        "country rock",
        "folk rock",
        "hard rock",
        "heartland rock",
        "mellow gold",
        "rock",
        "soft rock",
        "southern rock",
        "yacht rock"
    ]
}