{
    "- {plus": [
        "chillhop",
        "lo-fi beats"
    ],
    "000 maniacs": [
        "dance rock",
        "folk",
        "lilith",
        "mellow gold",
        "new wave pop",
        "pop rock"
    ],
    "10": [
        "escape room",
        "glitchcore"
    ],
    "101 strings": [
        "adult standards",
        "ballroom",
        "easy listening",
        "lounge"
    ],
    "101 strings orchestra": [
        "adult standards",
        "ballroom",
        "easy listening",
        "lounge"
    ],
    "10cc": [
        "album rock",
        "art rock",
        "classic rock",
        "classic uk pop",
        "dance rock",
        "folk rock",
        "glam rock",
        "mellow gold",
        "rock",
        "soft rock",
        "symphonic rock",
        "yacht rock"
    ],
    "112": [
        "atl hip hop",
        "boy band",
        "dance pop",
        "gangster rap",
        "hip pop",
        "new jack swing",
        "pop rap",
        "r&b",
        "rap",
        "southern hip hop",
        "urban contemporary"
    ],
    "1910 fruitgum company": [
        "brill building pop",
        "bubblegum pop",
        "classic garage rock",
        "folk rock",
        "merseybeat"
    ],
    "2 brothers on the 4th floor": [
        "bubblegum dance",
        "eurodance",
        "europop",
        "happy hardcore",
        "hip house"
    ],
    "2 eivissa": [
        "bubblegum dance",
        "eurodance",
        "europop",
        "hip house"
    ],
    "2 vibez": [
        "hands up"
    ],
    "2 wayz": [
        "kizomba",
        "zouk"
    ],
    "2-4 grooves": [
        "hands up",
        "pop house"
    ],
    "2nd ii none": [
        "gangster rap",
        "west coast rap"
    ],
    "2pac": [
        "g funk",
        "gangster rap",
        "hip hop",
        "rap",
        "west coast rap"
    ],
    "2raumwohnung": [
        "german pop"
    ],
    "3 doors down": [
        "alternative metal",
        "nu metal",
        "pop rock",
        "post-grunge"
    ],
    "30 seconds to mars": [
        "modern rock",
        "pop punk",
        "post-grunge",
        "rock"
    ],
    "311": [
        "alternative metal",
        "alternative rock",
        "funk metal",
        "funk rock",
        "nu metal",
        "pop rock",
        "rap rock",
        "reggae fusion",
        "rock"
    ],
    "313 bass mechanics": [
        "ghettotech"
    ],
    "31knots": [
        "math rock"
    ],
    "3lw": [
        "girl group",
        "hip pop",
        "r&b",
        "urban contemporary"
    ],
    "3rd alley": [
        "reggae rock"
    ],
    "3rd bass": [
        "east coast hip hop",
        "electro",
        "gangster rap",
        "hardcore hip hop",
        "hip hop",
        "hip house",
        "rap"
    ],
    "3t": [
        "electro-industrial",
        "industrial",
        "industrial metal",
        "industrial rock"
    ],
    "4 clubbers": [
        "bubble trance",
        "eurodance"
    ],
    "4 non blondes": [
        "new wave pop",
        "pop rock"
    ],
    "45 grave": [
        "deathrock",
        "gothic rock",
        "horror punk"
    ],
    "49ers": [
        "diva house",
        "hip house",
        "italo house"
    ],
    "4hero": [
        "broken beat",
        "drum and bass",
        "jazztronica",
        "jungle",
        "liquid funk",
        "ninja",
        "nu jazz",
        "rave",
        "trip hop"
    ],
    "4him": [
        "christian alternative rock",
        "christian music",
        "worship"
    ],
    "50 cent": [
        "east coast hip hop",
        "gangster rap",
        "hip hop",
        "pop rap",
        "queens hip hop",
        "rap"
    ],
    "808 state": [
        "acid house",
        "big beat",
        "chicago house",
        "electro",
        "hardcore techno",
        "hip house",
        "intelligent dance music",
        "madchester",
        "rave",
        "techno"
    ],
    "883": [
        "classic italian pop",
        "europop",
        "italian arena pop",
        "italian hip hop",
        "italian pop"
    ],
    "9 lazy 9": [
        "big beat",
        "downtempo",
        "ninja",
        "nu jazz",
        "trip hop",
        "turntablism"
    ],
    "91 suite": [
        "melodic hard rock"
    ],
    "98\u00ba": [
        "boy band",
        "dance pop"
    ],
    "? & the mysterians": [
        "bubblegum pop",
        "chicano punk",
        "classic garage rock",
        "freakbeat",
        "protopunk",
        "psychedelic rock"
    ],
    "a balladeer": [
        "dutch indie",
        "dutch rock"
    ],
    "a fine frenzy": [
        "acoustic pop",
        "lilith",
        "neo mellow"
    ],
    "a flock of seagulls": [
        "dance rock",
        "new romantic",
        "new wave",
        "new wave pop",
        "synthpop"
    ],
    "a perfect circle": [
        "alternative metal",
        "alternative rock",
        "modern rock",
        "nu metal",
        "rap rock",
        "rock",
        "supergroup"
    ],
    "a taste of honey": [
        "boogie",
        "disco",
        "funk",
        "post-disco"
    ],
    "a tribe called quest": [
        "alternative hip hop",
        "conscious hip hop",
        "east coast hip hop",
        "gangster rap",
        "hardcore hip hop",
        "hip hop",
        "jazz rap",
        "queens hip hop",
        "rap"
    ],
    "a*teens": [
        "bubblegum dance",
        "dance pop",
        "europop"
    ],
    "a-ha": [
        "dance rock",
        "new romantic",
        "new wave",
        "new wave pop",
        "permanent wave",
        "soft rock",
        "synthpop"
    ],
    "a.m.r.": [
        "arab electronic",
        "progressive trance house"
    ],
    "a.m.r. & matt dyson": [
        "arab electronic",
        "progressive trance house"
    ],
    "a.r.e. weapons": [
        "electroclash"
    ],
    "aaliyah": [
        "dance pop",
        "hip hop",
        "hip pop",
        "neo soul",
        "pop",
        "pop rap",
        "r&b",
        "urban contemporary"
    ],
    "aaron hall": [
        "neo soul",
        "new jack swing",
        "quiet storm",
        "r&b",
        "urban contemporary"
    ],
    "aaron neville": [
        "motown",
        "soul"
    ],
    "aaron shust": [
        "anthem worship",
        "ccm",
        "christian alternative rock",
        "christian music",
        "rock cristiano",
        "world worship",
        "worship"
    ],
    "aaron tippin": [
        "country",
        "country road",
        "country rock",
        "redneck"
    ],
    "aaron watson": [
        "contemporary country",
        "country",
        "country road",
        "modern country rock",
        "texas country"
    ],
    "abba": [
        "europop",
        "swedish pop"
    ],
    "abbacadabra": [
        "euro hi-nrg"
    ],
    "abc": [
        "art rock",
        "dance rock",
        "new romantic",
        "new wave",
        "new wave pop",
        "soft rock",
        "synthpop"
    ],
    "abdelaziz stati": [
        "chaabi marocain",
        "rai"
    ],
    "abigail washburn": [
        "banjo",
        "clawhammer banjo",
        "progressive bluegrass"
    ],
    "above & beyond feat. zoe johnston": [
        "edm",
        "progressive house",
        "progressive trance",
        "trance",
        "uplifting trance"
    ],
    "abra moore": [
        "ectofolk",
        "lilith",
        "new wave pop"
    ],
    "absent kid": [
        "deep indie rock"
    ],
    "abstract vision": [
        "deep uplifting trance",
        "progressive house",
        "progressive trance",
        "progressive uplifting trance",
        "russian trance",
        "trance",
        "uplifting trance"
    ],
    "abst\u00fcrzende brieftauben": [
        "antideutsche",
        "german punk",
        "german rock"
    ],
    "aca lukas": [
        "narodna muzika",
        "turbo folk",
        "yugoslav rock"
    ],
    "academy": [
        "british orchestra",
        "chamber orchestra",
        "classical",
        "classical performance"
    ],
    "academy of st martin-in-the-fields": [
        "british orchestra",
        "chamber orchestra",
        "classical",
        "classical performance"
    ],
    "acda & de munnik": [
        "metalcore",
        "pop punk",
        "screamo"
    ],
    "ace frehley": [
        "album rock",
        "glam metal",
        "hard rock",
        "metal",
        "rock"
    ],
    "ace of base": [
        "bubblegum dance",
        "dance pop",
        "eurodance",
        "europop",
        "hip house",
        "pop rock"
    ],
    "acker bilk": [
        "adult standards",
        "ballroom",
        "brill building pop",
        "easy listening",
        "jazz clarinet",
        "lounge"
    ],
    "across the border": [
        "celtic punk"
    ]
}