927202
517014
836546
414100
274619
139820
90494
333317
199215
139825
263591
142044
-99942
119857
201804
-32217
-100304
116494
-62836
109075
189020
-105629
189989
399930
212279
144833
83528
-86574
212869
80756
-134109
216776
69271
34060
-71745
128245
241234
98166
374458
297556
337037
236146
279832
459485
371646
159283
278252
-47084
-212662
263652
390911
-144094
-227348
28113
310211
97903
259909
262104
-89710
-125149
145000
244038
365254
-30001
245054
67428
124809
219045
51788
292290
86899
-11412
30096
61402
97411
93865
-191231
-50583
87855
196605
112025
-172101
-21371
-90071
-75888
408881
230394
200709
-34226
81938
16137
-180249
172757
347547
106266
-271751
80926
-122205
-172752
99330
217672
-123499
123286
190416
310248
210399
-7435
255156
215479
-49845
-261840
-172431
-415777
-209207
-213633
78138
-39160
13911
97348
-77789
-165321
-82466
-425841
-137951
-416697
59791
2925
-420098
-59675
-281725
195045
46151
-232552
-44766
294603
389392
478006
291104
257002
553545
299809
434036
324877
228477
223887
157695
471706
470669
485695
297391
292506
381635
68283
244882
57251
39477
110383
57671
58297
-45390
-154523
-159597
-221894
35292
-210723
-22576
-205794
-142789
-27588
-39407
-31447
-105310
-260702
-313672
-279656
-128859
-478732
-288520
-521658
-611641
-698671
-670217
-689943
-586350
-600575
-708527
-785263
-433422
-710939
-300898
-398163
-373648
-185032
20989
-43855
47991
37863
-73186
-71672
279908
-205795
-89472
-283112
-295324
-180227
33907
1456
207449
192708
50979
-5013
238902
-364569
-372221
-605295
-568911
-553564
-411394
-547914
-400620
-366075
-501459
-439283
-131134
-616594
-470847
-697178
-572813
-567190
-341530
-237913
-115740
-73358
-187482
-156601
51535
-184894
-39531
-110250
-52731
41782
145924
204496
447189
404171
319856
421500
763867
489631
616532
441030
475312
609680
383885
353984
347373
485363
354446
313553
352507
491352
134619
297463
771033
635083
626321
551405
631601
351663
436231
285322
28415
270969
187109
391164
508930
443678
260163
388846
201716
146941
222626
15680
-111433
-20868
-179989
-22919
-75954
-107618
-139778
-70863
-109488
-163634
-169448
-431266
-390797
-246038
-335130
-140215
-205664
-130094
-175516
-241353
-341265
-612085
-625360
-969639
-1102295
-1061194
-980062
-883395
-789776
-736799
-788134
-737378
-764475
-714670
-599682
-698292
-527878
-265297
-207212
87896
94667
272493
207201
274428
226148
55753
68472
-251415
-367730
-197653
-291819
-39730
37993
248585
277296
354124
281428
103320
6625
-305497
-309327
-140637
-178177
7933
57145
203102
194331
191824
78468
-83087
-145709
-423364
-484830
-372303
-292832
-219139
-86548
68318
12859
145574
89544
57609
8422
-42302
31572
230903
325295
561975
665354
721110
883090
895747
876396
830139
956983
821960
823202
918916
981971
1029096
900127
961483
722297
979493
694632
769581
539254
887793
619681
549333
455549
426801
665738
582156
514482
518211
539388
502724
699424
563318
410873
370332
437008
433028
583874
502971
338730
351343
432752
393757
588197
488505
355947
313917
349149
344452
477013
445632
375494
373446
493935
467467
617696
545783
494765
356059
385709
368938
521211
486039
455689
486391
578370
572100
680172
109602
-56355
194215
66344
4422
-141284
-105211
-86798
69136
207351
