172
195
205
352
365
253
51
71
12
392
293
266
115
119
319
336
221
135
230
390
95
118
150
111
367
49
67
316
395
273
254
320
7
383
98
45
90
263
284
126
341
19
392
222
356
330
53
372
384
346
217
371
59
187
237
103
13
387
375
79
106
135
20
308
276
382
314
40
33
396
372
193
319
301
149
366
58
280
221
131
75
60
14
6
106
221
44
280
258
184
41
69
379
85
105
33
90
71
119
369
