{ENCODER_MODES.MUSENET_DEFAULT: 524390, ENCODER_MODES.MUSENET_NO_VELOCITY: 16486}
60 0 22.736807999999996 25.263119999999997
63 0 22.736807999999996 25.263119999999997
56 0 22.736807999999996 25.263119999999997
56 0 25.263119999999997 27.789431999999998
53 0 25.263119999999997 27.789431999999998
63 0 25.263119999999997 27.789431999999998
61 0 27.789431999999998 30.315743999999995
56 0 27.789431999999998 30.315743999999995
65 0 27.789431999999998 30.315743999999995
64 0 30.315743999999995 32.842056
56 0 30.315743999999995 32.842056
59 0 30.315743999999995 32.842056
58 0 32.842056 35.368368
65 0 32.842056 35.368368
62 0 32.842056 35.368368
58 0 35.368368 37.894679999999994
63 0 35.368368 37.894679999999994
68 0 35.368368 37.894679999999994
63 0 37.894679999999994 40.420992
56 0 37.894679999999994 40.420992
59 0 37.894679999999994 40.420992
65 0 40.420992 42.947303999999995
58 0 40.420992 42.947303999999995
63 0 40.420992 42.947303999999995
67 0 42.947303999999995 45.47361599999999
58 0 42.947303999999995 45.47361599999999
63 0 42.947303999999995 45.47361599999999
67 0 45.47361599999999 47.999928
60 0 45.47361599999999 47.999928
56 0 45.47361599999999 47.999928
65 0 47.999928 50.526239999999994
61 0 47.999928 50.526239999999994
56 0 47.999928 50.526239999999994
53 0 47.999928 50.526239999999994
60 0 50.526239999999994 51.63150149999999
56 0 50.526239999999994 51.63150149999999
64 0 50.526239999999994 51.63150149999999
66 0 51.63150149999999 53.05255199999999
56 0 51.63150149999999 53.05255199999999
60 0 51.63150149999999 53.05255199999999
60 0 53.05255199999999 54.157813499999996
55 0 53.05255199999999 54.157813499999996
58 0 53.05255199999999 54.157813499999996
58 0 54.157813499999996 55.578863999999996
60 0 54.157813499999996 55.578863999999996
63 0 54.157813499999996 55.578863999999996
65 0 55.578863999999996 58.10517599999999
60 0 55.578863999999996 58.10517599999999
56 0 55.578863999999996 58.10517599999999
63 0 58.10517599999999 60.63148799999999
[pitch: 56
velocity: 24
start_time: 2.52
end_time: 2.5300000000000002
program: 24
, pitch: 60
velocity: 24
start_time: 2.52
end_time: 2.5300000000000002
program: 24
, pitch: 63
velocity: 24
start_time: 2.52
end_time: 2.5300000000000002
program: 24
, pitch: 56
velocity: 36
start_time: 2.68
end_time: 2.84
program: 24
, pitch: 60
velocity: 36
start_time: 2.68
end_time: 2.84
program: 24
, pitch: 63
velocity: 36
start_time: 2.68
end_time: 2.84
program: 24
, pitch: 51
velocity: 104
start_time: 2.52
end_time: 2.99
program: 24
, pitch: 56
velocity: 48
start_time: 2.84
end_time: 3.0
program: 24
, pitch: 56
velocity: 60
start_time: 2.99
end_time: 3.0
program: 24
, pitch: 60
velocity: 48
start_time: 2.84
end_time: 3.0
program: 24
]
